Assignment2
…
The estimated life expectancy increased over the years from about 56 to about 57.

3

q3data <- read_table("http://www.stat.columbia.edu/~gelman/arm/examples/arsenic/wells.dat", col_names = c("id", "switch", "arsenic", "dist", "assoc", "educ"), skip = 1)
q3data <- q3data %>% mutate(switch_str = if_else(switch == 0, "Didn't Switch", "Switched"))
q3data

# A tibble: 3,020 × 7
   id       switch arsenic  dist assoc  educ switch_str   
   <chr>     <dbl>   <dbl> <dbl> <dbl> <dbl> <chr>        
 1 "\"1\""       1    2.36  16.8     0     0 Switched     
 2 "\"2\""       1    0.71  47.3     0     0 Switched     
 3 "\"3\""       0    2.07  21.0     0    10 Didn't Switch
 4 "\"4\""       1    1.15  21.5     0    12 Switched     
 5 "\"5\""       1    1.1   40.9     1    14 Switched     
 6 "\"6\""       1    3.9   69.5     1     9 Switched     
 7 "\"7\""       1    2.97  80.7     1     4 Switched     
 8 "\"8\""       1    3.24  55.1     0    10 Switched     
 9 "\"9\""       1    3.28  52.6     1     0 Switched     
10 "\"10\""      1    2.52  75.1     1     0 Switched     
# … with 3,010 more rows
…
